<?xml version="1.0" encoding="UTF-8" standalone="no"?>
<!-- Created with Inkscape (http://www.inkscape.org/) -->

<svg
   xmlns:dc="http://purl.org/dc/elements/1.1/"
   xmlns:cc="http://creativecommons.org/ns#"
   xmlns:rdf="http://www.w3.org/1999/02/22-rdf-syntax-ns#"
   xmlns:svg="http://www.w3.org/2000/svg"
   xmlns="http://www.w3.org/2000/svg"
   xmlns:sodipodi="http://sodipodi.sourceforge.net/DTD/sodipodi-0.dtd"
   xmlns:inkscape="http://www.inkscape.org/namespaces/inkscape"
   width="720"
   height="720"
   id="svg2"
   version="1.1"
   inkscape:version="0.48.5 r10040"
   sodipodi:docname="background.svg"
   inkscape:export-filename="D:\Git\public\ludum-dare-32\ludum-dare-32\content\gfx\background.png"
   inkscape:export-xdpi="90"
   inkscape:export-ydpi="90">
  <defs
     id="defs4" />
  <sodipodi:namedview
     id="base"
     pagecolor="#ffffff"
     bordercolor="#666666"
     borderopacity="1.0"
     inkscape:pageopacity="0.0"
     inkscape:pageshadow="2"
     inkscape:zoom="0.49444444"
     inkscape:cx="584.62016"
     inkscape:cy="235.50007"
     inkscape:document-units="px"
     inkscape:current-layer="layer1"
     showgrid="true"
     inkscape:window-width="1920"
     inkscape:window-height="1027"
     inkscape:window-x="-8"
     inkscape:window-y="-8"
     inkscape:window-maximized="1">
    <inkscape:grid
       type="xygrid"
       id="grid2985"
       empspacing="4"
       visible="true"
       enabled="true"
       snapvisiblegridlinesonly="true"
       spacingx="4px"
       spacingy="4px" />
  </sodipodi:namedview>
  <metadata
     id="metadata7">
    <rdf:RDF>
      <cc:Work
         rdf:about="">
        <dc:format>image/svg+xml</dc:format>
        <dc:type
           rdf:resource="http://purl.org/dc/dcmitype/StillImage" />
        <dc:title></dc:title>
      </cc:Work>
    </rdf:RDF>
  </metadata>
  <g
     inkscape:label="Layer 1"
     inkscape:groupmode="layer"
     id="layer1"
     transform="translate(0,-332.36218)">
    <rect
       style="color:#000000;fill:#d6d8e2;fill-opacity:1;fill-rule:nonzero;stroke:none;stroke-width:5;marker:none;visibility:visible;display:inline;overflow:visible;enable-background:accumulate"
       id="rect2987"
       width="720"
       height="720"
       x="0"
       y="0"
       transform="translate(0,332.36218)" />
    <path
       style="fill:#acaacb;stroke:none;stroke-width:1px;stroke-linecap:butt;stroke-linejoin:miter;stroke-opacity:1;fill-opacity:1"
       d="M 128,0 0,128 0,192 192,0 z"
       id="path3757"
       inkscape:connector-curvature="0"
       transform="translate(0,332.36218)" />
    <path
       style="fill:#acaacb;stroke:none;stroke-width:1px;stroke-linecap:butt;stroke-linejoin:miter;stroke-opacity:1;fill-opacity:1"
       d="M 0,320 320,0 384,0 0,384 z"
       id="path3770"
       inkscape:connector-curvature="0"
       transform="translate(0,332.36218)" />
    <path
       style="fill:#acaacb;stroke:none;stroke-width:1px;stroke-linecap:butt;stroke-linejoin:miter;stroke-opacity:1;fill-opacity:1"
       d="M 0,512 512,0 576,0 0,576 z"
       id="path3772"
       inkscape:connector-curvature="0"
       transform="translate(0,332.36218)" />
    <path
       style="fill:#acaacb;fill-opacity:1;stroke:none"
       d="M 704,0 0,704 0,720 48,720 720,48 720,0 z"
       id="path3774"
       inkscape:connector-curvature="0"
       transform="translate(0,332.36218)"
       sodipodi:nodetypes="ccccccc" />
    <path
       style="fill:#acaacb;fill-opacity:1;stroke:none"
       d="m 176,720 544,-544 0,64 -480,480 z"
       id="path3776"
       inkscape:connector-curvature="0"
       transform="translate(0,332.36218)"
       sodipodi:nodetypes="ccccc" />
    <path
       style="fill:#acaacb;stroke:none;stroke-width:1px;stroke-linecap:butt;stroke-linejoin:miter;stroke-opacity:1;fill-opacity:1"
       d="m 368,720 352,-352 0,64 -288,288 z"
       id="path3778"
       inkscape:connector-curvature="0"
       transform="translate(0,332.36218)" />
    <path
       style="fill:#acaacb;stroke:none;stroke-width:1px;stroke-linecap:butt;stroke-linejoin:miter;stroke-opacity:1;fill-opacity:1"
       d="m 560,720 160,-160 0,64 -96,96 z"
       id="path3780"
       inkscape:connector-curvature="0"
       transform="translate(0,332.36218)" />
    <path
       style="fill:#36324a;stroke:none;stroke-width:1px;stroke-linecap:butt;stroke-linejoin:miter;stroke-opacity:1;fill-opacity:1"
       d="M 0 0 L 0 320 L 0 400 L 0 720 L 336 720 L 384 720 L 720 720 L 720 400 L 720 320 L 720 0 L 384 0 L 336 0 L 0 0 z M 64 16 L 336 16 L 384 16 L 656 16 L 672 24 L 696 48 L 704 64 L 704 320 L 704 400 L 704 656 L 696 672 L 672 696 L 656 704 L 384 704 L 336 704 L 64 704 L 48 696 L 24 672 L 16 656 L 16 400 L 16 320 L 16 64 L 24 48 L 48 24 L 64 16 z "
       transform="translate(0,332.36218)"
       id="path3782" />
    <g
       transform="matrix(2,0,0,1.999995,-48,-948.35718)"
       id="g3898-0"
       inkscape:export-filename="D:\Git\public\ludum-dare-32\ludum-dare-32\content\gfx\chargeMeterBase.png"
       inkscape:export-xdpi="90"
       inkscape:export-ydpi="90">
      <path
         style="fill:#cfd4e1;fill-opacity:1;stroke:none"
         d="m 28,988.36214 4,-4 4,0 4,4 0,4.00003 -4,4 -4,0 -4,-4 z"
         id="path3056-94"
         inkscape:connector-curvature="0" />
      <path
         inkscape:connector-curvature="0"
         style="fill:#3e3d4b;fill-opacity:1;stroke:none"
         d="m 30.71875,985.64342 -1.4375,1.4375 3.3125,3.28125 -3.3125,3.28125 1.4375,1.4375 3.28125,-3.3125 3.28125,3.3125 1.4375,-1.4375 -3.3125,-3.28125 3.3125,-3.28125 -1.4375,-1.4375 -3.28125,3.3125 -3.28125,-3.3125 z"
         id="path3056-9-8" />
    </g>
    <g
       transform="matrix(2,0,0,1.999995,632,-948.35718)"
       id="g3898-0-4"
       inkscape:export-filename="D:\Git\public\ludum-dare-32\ludum-dare-32\content\gfx\chargeMeterBase.png"
       inkscape:export-xdpi="90"
       inkscape:export-ydpi="90">
      <path
         style="fill:#cfd4e1;fill-opacity:1;stroke:none"
         d="m 28,988.36214 4,-4 4,0 4,4 0,4.00003 -4,4 -4,0 -4,-4 z"
         id="path3056-94-0"
         inkscape:connector-curvature="0" />
      <path
         inkscape:connector-curvature="0"
         style="fill:#3e3d4b;fill-opacity:1;stroke:none"
         d="m 30.71875,985.64342 -1.4375,1.4375 3.3125,3.28125 -3.3125,3.28125 1.4375,1.4375 3.28125,-3.3125 3.28125,3.3125 1.4375,-1.4375 -3.3125,-3.28125 3.3125,-3.28125 -1.4375,-1.4375 -3.28125,3.3125 -3.28125,-3.3125 z"
         id="path3056-9-8-9" />
    </g>
    <g
       transform="matrix(2,0,0,1.999995,632,-1628.3572)"
       id="g3898-0-4-4"
       inkscape:export-filename="D:\Git\public\ludum-dare-32\ludum-dare-32\content\gfx\chargeMeterBase.png"
       inkscape:export-xdpi="90"
       inkscape:export-ydpi="90">
      <path
         style="fill:#cfd4e1;fill-opacity:1;stroke:none"
         d="m 28,988.36214 4,-4 4,0 4,4 0,4.00003 -4,4 -4,0 -4,-4 z"
         id="path3056-94-0-8"
         inkscape:connector-curvature="0" />
      <path
         inkscape:connector-curvature="0"
         style="fill:#3e3d4b;fill-opacity:1;stroke:none"
         d="m 30.71875,985.64342 -1.4375,1.4375 3.3125,3.28125 -3.3125,3.28125 1.4375,1.4375 3.28125,-3.3125 3.28125,3.3125 1.4375,-1.4375 -3.3125,-3.28125 3.3125,-3.28125 -1.4375,-1.4375 -3.28125,3.3125 -3.28125,-3.3125 z"
         id="path3056-9-8-9-8" />
    </g>
    <g
       transform="matrix(2,0,0,1.999995,-48,-1628.3572)"
       id="g3898-0-4-2"
       inkscape:export-filename="D:\Git\public\ludum-dare-32\ludum-dare-32\content\gfx\chargeMeterBase.png"
       inkscape:export-xdpi="90"
       inkscape:export-ydpi="90">
      <path
         style="fill:#cfd4e1;fill-opacity:1;stroke:none"
         d="m 28,988.36214 4,-4 4,0 4,4 0,4.00003 -4,4 -4,0 -4,-4 z"
         id="path3056-94-0-4"
         inkscape:connector-curvature="0" />
      <path
         inkscape:connector-curvature="0"
         style="fill:#3e3d4b;fill-opacity:1;stroke:none"
         d="m 30.71875,985.64342 -1.4375,1.4375 3.3125,3.28125 -3.3125,3.28125 1.4375,1.4375 3.28125,-3.3125 3.28125,3.3125 1.4375,-1.4375 -3.3125,-3.28125 3.3125,-3.28125 -1.4375,-1.4375 -3.28125,3.3125 -3.28125,-3.3125 z"
         id="path3056-9-8-9-5" />
    </g>
  </g>
</svg>
